{
	"href": "https://api.spotify.com/v1/search?query=imagine&type=artist&offset=0&limit=5",
	"items": [
		{
			"external_urls": {
				"spotify": "https://open.spotify.com/artist/53XhwfbYqKCa1cC15pYq2q"
			},
			"followers": {
				"href": null,
				"total": 5472302
			},
			"genres": [
				"modern rock",
				"pop",
				"vegas indie"
			],
			"href": "https://api.spotify.com/v1/artists/53XhwfbYqKCa1cC15pYq2q",
			"id": "53XhwfbYqKCa1cC15pYq2q",
			"images": [
				{
					"height": 640,
					"url": "https://i.scdn.co/image/de3c2c4f4e822edab6fd8c2103102413502635ea",
					"width": 640
				},
				{
					"height": 320,
					"url": "https://i.scdn.co/image/0242e9f3cdaeb9abd0c9724248213c8e364fc921",
					"width": 320
				},
				{
					"height": 160,
					"url": "https://i.scdn.co/image/affb5c546adf0b6f718282528e56f24854026be1",
					"width": 160
				}
			],
			"name": "Imagine Dragons",
			"popularity": 94,
			"type": "artist",
			"uri": "spotify:artist:53XhwfbYqKCa1cC15pYq2q"
		},
		{
			"external_urls": {
				"spotify": "https://open.spotify.com/artist/4SOk9hgrKvDv8pVI1iUZ8L"
			},
			"followers": {
				"href": null,
				"total": 1196
			},
			"genres": [
				"epicore"
			],
			"href": "https://api.spotify.com/v1/artists/4SOk9hgrKvDv8pVI1iUZ8L",
			"id": "4SOk9hgrKvDv8pVI1iUZ8L",
			"images": [
				{
					"height": 640,
					"url": "https://i.scdn.co/image/0e6e1e8636396c231f7ed3c35229cd1ede4b00f0",
					"width": 640
				},
				{
					"height": 300,
					"url": "https://i.scdn.co/image/7cd81949bd21ebdd015012ca3d455db6e3f29945",
					"width": 300
				},
				{
					"height": 64,
					"url": "https://i.scdn.co/image/2d622d81b1d022d74e65fa7a20b0effcf0c3a695",
					"width": 64
				}
			],
			"name": "Imagine Music",
			"popularity": 36,
			"type": "artist",
			"uri": "spotify:artist:4SOk9hgrKvDv8pVI1iUZ8L"
		},
		{
			"external_urls": {
				"spotify": "https://open.spotify.com/artist/0ajeO3Uh8ffXQmkTRV64sM"
			},
			"followers": {
				"href": null,
				"total": 255
			},
			"genres": [],
			"href": "https://api.spotify.com/v1/artists/0ajeO3Uh8ffXQmkTRV64sM",
			"id": "0ajeO3Uh8ffXQmkTRV64sM",
			"images": [
				{
					"height": 640,
					"url": "https://i.scdn.co/image/e78aabfb6c9c81d9df2afc80a7f41f61a4f1dde9",
					"width": 640
				},
				{
					"height": 300,
					"url": "https://i.scdn.co/image/18c52e7e7456316bb8cb5c1359d60c5a6d317c80",
					"width": 300
				},
				{
					"height": 64,
					"url": "https://i.scdn.co/image/abb0e5b32a13247f6190495603551432d8f9b214",
					"width": 64
				}
			],
			"name": "Imagine",
			"popularity": 18,
			"type": "artist",
			"uri": "spotify:artist:0ajeO3Uh8ffXQmkTRV64sM"
		},
		{
			"external_urls": {
				"spotify": "https://open.spotify.com/artist/50d4g0jrhxA39axHizCcc1"
			},
			"followers": {
				"href": null,
				"total": 3178
			},
			"genres": [],
			"href": "https://api.spotify.com/v1/artists/50d4g0jrhxA39axHizCcc1",
			"id": "50d4g0jrhxA39axHizCcc1",
			"images": [
				{
					"height": 640,
					"url": "https://i.scdn.co/image/bded1f378b0dda75da8b16be17b98bebae35cbaf",
					"width": 640
				},
				{
					"height": 300,
					"url": "https://i.scdn.co/image/181563de490d9791d4e870a2402a10a2ee417543",
					"width": 300
				},
				{
					"height": 64,
					"url": "https://i.scdn.co/image/521b087f885097b52503c375b9f1cb8b0ea95879",
					"width": 64
				}
			],
			"name": "Imagine Demons",
			"popularity": 31,
			"type": "artist",
			"uri": "spotify:artist:50d4g0jrhxA39axHizCcc1"
		},
		{
			"external_urls": {
				"spotify": "https://open.spotify.com/artist/2GZIkd7QPKtg5c3alf8rYt"
			},
			"followers": {
				"href": null,
				"total": 616
			},
			"genres": [],
			"href": "https://api.spotify.com/v1/artists/2GZIkd7QPKtg5c3alf8rYt",
			"id": "2GZIkd7QPKtg5c3alf8rYt",
			"images": [
				{
					"height": 640,
					"url": "https://i.scdn.co/image/0a6ee69bb968d142f5bf6070528b5f4ce5cd9276",
					"width": 640
				},
				{
					"height": 300,
					"url": "https://i.scdn.co/image/228dfeef5e3e885b2f7d9245d8524da6cb63316f",
					"width": 300
				},
				{
					"height": 64,
					"url": "https://i.scdn.co/image/bfb36bb0b9c8ffb643f22fad0bdc7869492aacea",
					"width": 64
				}
			],
			"name": "Jade Imagine",
			"popularity": 28,
			"type": "artist",
			"uri": "spotify:artist:2GZIkd7QPKtg5c3alf8rYt"
		}
	],
	"limit": 5,
	"next": "https://api.spotify.com/v1/search?query=imagine&type=artist&offset=5&limit=5",
	"offset": 0,
	"previous": null,
	"total": 48
}